%YAML 1.1
%TAG !u! tag:unity3d.com,2011:
--- !u!78 &1
TagManager:
  serializedVersion: 2
  tags:
  - Enemy
  - Ground
  - PickupAmmunition
  - PickupScore
  - Falltuer
  - BulletPlayer
  - BulletEnemy
  - EnemyHand
  layers:
  - Default
  - TransparentFX
  - Ignore Raycast
  - EnemyIgnore
  - Water
  - UI
  - 
  - 
  - 
  - 
  - 
  - 
  - 
  - 
  - 
  - 
  - 
  - 
  - 
  - 
  - 
  - 
  - 
  - 
  - 
  - 
  - 
  - 
  - 
  - 
  - 
  - 
  m_SortingLayers:
  - name: Default
    uniqueID: 0
    locked: 0
